{
    "dev": {
        "django_settings": "risks.settings",
        "project_name": "risks",
        "runtime": "python3.6",
        "s3_bucket": "zappatests-code",
        "aws_region": "us-east-1",
        "vpc_config": {
            "SubnetIds": ["subnet-082a7f07", "subnet-dc092a96", "subnet-75900312", "subnet-d563c4eb", "subnet-b499079a", "subnet-a1930ffd"],
            "SecurityGroupIds": ["sg-05e45e18f4325b483"]
        }
    }
}